\boolfalse {citerequest}\boolfalse {citetracker}\boolfalse {pagetracker}\boolfalse {backtracker}\relax 
\defcounter {refsection}{0}\relax 
\contentsline {chapter}{\numberline {第1章}はじめに}{3}{chapter.1}%
\defcounter {refsection}{0}\relax 
\contentsline {chapter}{\numberline {第2章}背景}{4}{chapter.2}%
\defcounter {refsection}{0}\relax 
\contentsline {section}{\numberline {2.1}強化学習}{4}{section.2.1}%
\defcounter {refsection}{0}\relax 
\contentsline {chapter}{\numberline {第3章}提案手法}{5}{chapter.3}%
\defcounter {refsection}{0}\relax 
\contentsline {chapter}{\numberline {第4章}実験}{6}{chapter.4}%
